<?xml version="1.0" encoding="UTF-8"?>
<testsuite name="org.springframework.beans.BeanUtilsKotlinTests" tests="1" skipped="0" failures="0" errors="0" timestamp="2021-12-22T00:58:54" hostname="ZhangKaideMBP.lan" time="0.618">
  <properties/>
  <testcase name="Instantiate mutable class with declared constructor and default values for all parameters" classname="org.springframework.beans.BeanUtilsKotlinTests" time="0.618"/>
  <system-out><![CDATA[]]></system-out>
  <system-err><![CDATA[]]></system-err>
</testsuite>
